Visualizing Data (in R)
…
---

count: false

.panel1-example-1-auto[

```r
*state_election_votes
```
]
 
.panel2-example-1-auto[

```
  # A tibble: 1,097 x 3
     State       demVote  Year
     <chr>         <dbl> <dbl>
   1 Alabama       0.85   1932
   2 Arizona       0.67   1932
   3 Arkansas      0.86   1932
   4 California    0.580  1932
   5 Colorado      0.55   1932
   6 Connecticut   0.47   1932
   7 Delaware      0.48   1932
   8 Florida       0.74   1932
   9 Georgia       0.92   1932
  10 Idaho         0.59   1932
  # ... with 1,087 more rows
```
…
```r
state_election_votes %>%
* filter(State %in%
*   c("Pennsylvania",
*   "Illinois",
*   "California")
* )
```
]
 
.panel2-example-1-auto[

```
  # A tibble: 66 x 3
     State        demVote  Year
     <chr>          <dbl> <dbl>
   1 California     0.580  1932
   2 Illinois       0.55   1932
   3 Pennsylvania   0.45   1932
   4 California     0.67   1936
   5 Illinois       0.580  1936
   6 Pennsylvania   0.570  1936
   7 California     0.570  1940
   8 Illinois       0.51   1940
   9 Pennsylvania   0.53   1940
  10 California     0.56   1944
  # ... with 56 more rows
```
…
---

count: false

.panel1-vowels1-auto[

```r
*sim_vowel_data
```
]
 
.panel2-vowels1-auto[

```
  # A tibble: 300 x 3
     Vowel    F1    F2
     <chr> <dbl> <dbl>
   1 i      371. 2431.
   2 i      332. 2435.
   3 i      286. 2630.
   4 i      110. 2527.
   5 i      302. 2315.
   6 i      199. 2279.
   7 i      152. 2303.
   8 i      173. 2116.
   9 i      258. 2540.
  10 i      200. 2604.
  # ... with 290 more rows
```
…
---

count: false

.panel1-vowels2-auto[

```r
*sim_vowel_data_all
```
]
 
.panel2-vowels2-auto[

```
  # A tibble: 800 x 3
     Vowel    F1    F2
     <chr> <dbl> <dbl>
   1 i      371. 2431.
   2 i      332. 2435.
   3 i      286. 2630.
   4 i      110. 2527.
   5 i      302. 2315.
   6 i      199. 2279.
   7 i      152. 2303.
   8 i      173. 2116.
   9 i      258. 2540.
  10 i      200. 2604.
  # ... with 790 more rows
```
…
---
count: false

.panel1-vowels2-auto[

```r
sim_vowel_data_all %>%
* group_by(Vowel)
```
]
 
.panel2-vowels2-auto[

```
  # A tibble: 800 x 3
  # Groups:   Vowel [16]
     Vowel    F1    F2
     <chr> <dbl> <dbl>
   1 i      371. 2431.
   2 i      332. 2435.
   3 i      286. 2630.
   4 i      110. 2527.
   5 i      302. 2315.
   6 i      199. 2279.
   7 i      152. 2303.
   8 i      173. 2116.
   9 i      258. 2540.
  10 i      200. 2604.
  # ... with 790 more rows
```
…
---

count: false

.panel1-accuracy_bar-auto[

```r
*read_csv("https://raw.githubusercontent.com/yjunechoe/Semantic-Persistence/master/processed.csv")
```
]
 
.panel2-accuracy_bar-auto[

```
  # A tibble: 4,516 x 10
     Value Item    Cond   Group Subject          Time Answer Accuracy Type   logRT
     <chr> <chr>   <chr>  <chr> <chr>           <dbl> <chr>     <dbl> <chr>  <dbl>
   1 Yes   Awaken~ Subje~ B     5cfa77e907f7dd~   917 No            0 Criti~  6.82
   2 No    Awaken~ Subje~ B     5c1d21196036e4~  2624 No            1 Criti~  7.87
   3 No    Awaken~ Subje~ B     5d730aab6b4b16~  2809 No            1 Criti~  7.94
   4 No    Awaken~ Subje~ B     5ddef0fae454cd~  1587 No            1 Criti~  7.37
   5 No    Awaken~ Subje~ B     5e7a8e8b11bf56~  1697 No            1 Criti~  7.44
   6 No    Awaken~ Verb   A     5d4613a2da9cb6~  1484 No            1 Criti~  7.30
   7 No    Awaken~ Verb   A     579e1e2b275be6~  1556 No            1 Criti~  7.35
   8 No    Awaken~ Verb   A     5dfe69ed11d879~  1699 No            1 Criti~  7.44
   9 No    Awaken~ Verb   A     5b9442cecd3808~  2159 No            1 Criti~  7.68
  10 No    Awaken~ Verb   A     5e7f3328849917~  1132 No            1 Criti~  7.03
  # ... with 4,506 more rows
```
…
---
count: false

.panel1-accuracy_bar-auto[

```r
read_csv("https://raw.githubusercontent.com/yjunechoe/Semantic-Persistence/master/processed.csv") %>%
* filter(Type == "Critical")
```
]
 
.panel2-accuracy_bar-auto[

```
  # A tibble: 1,466 x 10
     Value Item    Cond   Group Subject          Time Answer Accuracy Type   logRT
     <chr> <chr>   <chr>  <chr> <chr>           <dbl> <chr>     <dbl> <chr>  <dbl>
   1 Yes   Awaken~ Subje~ B     5cfa77e907f7dd~   917 No            0 Criti~  6.82
   2 No    Awaken~ Subje~ B     5c1d21196036e4~  2624 No            1 Criti~  7.87
   3 No    Awaken~ Subje~ B     5d730aab6b4b16~  2809 No            1 Criti~  7.94
   4 No    Awaken~ Subje~ B     5ddef0fae454cd~  1587 No            1 Criti~  7.37
   5 No    Awaken~ Subje~ B     5e7a8e8b11bf56~  1697 No            1 Criti~  7.44
   6 No    Awaken~ Verb   A     5d4613a2da9cb6~  1484 No            1 Criti~  7.30
   7 No    Awaken~ Verb   A     579e1e2b275be6~  1556 No            1 Criti~  7.35
   8 No    Awaken~ Verb   A     5dfe69ed11d879~  1699 No            1 Criti~  7.44
   9 No    Awaken~ Verb   A     5b9442cecd3808~  2159 No            1 Criti~  7.68
  10 No    Awaken~ Verb   A     5e7f3328849917~  1132 No            1 Criti~  7.03
  # ... with 1,456 more rows
```
…
.panel1-accuracy_bar-auto[

```r
read_csv("https://raw.githubusercontent.com/yjunechoe/Semantic-Persistence/master/processed.csv") %>%
  filter(Type == "Critical") %>%
* group_by(Cond, Group)
```
]
 
.panel2-accuracy_bar-auto[

```
  # A tibble: 1,466 x 10
  # Groups:   Cond, Group [4]
     Value Item    Cond   Group Subject          Time Answer Accuracy Type   logRT
     <chr> <chr>   <chr>  <chr> <chr>           <dbl> <chr>     <dbl> <chr>  <dbl>
   1 Yes   Awaken~ Subje~ B     5cfa77e907f7dd~   917 No            0 Criti~  6.82
   2 No    Awaken~ Subje~ B     5c1d21196036e4~  2624 No            1 Criti~  7.87
   3 No    Awaken~ Subje~ B     5d730aab6b4b16~  2809 No            1 Criti~  7.94
   4 No    Awaken~ Subje~ B     5ddef0fae454cd~  1587 No            1 Criti~  7.37
   5 No    Awaken~ Subje~ B     5e7a8e8b11bf56~  1697 No            1 Criti~  7.44
   6 No    Awaken~ Verb   A     5d4613a2da9cb6~  1484 No            1 Criti~  7.30
   7 No    Awaken~ Verb   A     579e1e2b275be6~  1556 No            1 Criti~  7.35
   8 No    Awaken~ Verb   A     5dfe69ed11d879~  1699 No            1 Criti~  7.44
   9 No    Awaken~ Verb   A     5b9442cecd3808~  2159 No            1 Criti~  7.68
  10 No    Awaken~ Verb   A     5e7f3328849917~  1132 No            1 Criti~  7.03
  # ... with 1,456 more rows
```
…
